# 格式：渠道,uid,orderID,orderUserName,CB-No.,Amount,Date
airpay2,130,AIN2168653672709791707bd,userName,316387746184,500.0000,1686536727
airpay2,130,AIN2168653432401982320a6,userName,316393270792,500.0000,1686534325
airpay2,130,AIN2168653493706995524eb,userName,316356772956,500.0000,1686534938
airpay2,104,AIN2168690884104761558fb,userName,316744607624,300.0000,1686908842
airpay2,161,AIN216865872990211595b0a,userName,316341502830,10000.0000,1686587299
airpay2,130,AIN21687008899070261c802,userName,316833432961,10000.0000,1687008901
airpay2,97,AIN216865741440162271983,userName,316329516415,10000.0000,1686574145
airpay2,104,AIN21686908171007401563d,userName,316746362716,100.0000,1686908172
airpay2,104,AIN2168690701607128450b2,userName,316709734477,300.0000,1686907017
airpay2,104,AIN2168690808304509855e4,userName,316703321850,100.0000,1686908083
