module funzone_pay

go 1.20

require (
	github.com/aliyun/alibaba-cloud-sdk-go v1.62.506
	github.com/garyburd/redigo v1.6.4
	github.com/gin-contrib/cors v1.4.0
	github.com/gin-gonic/gin v1.9.1
	github.com/go-sql-driver/mysql v1.7.1
	github.com/json-iterator/go v1.1.12
	github.com/robfig/cron v1.2.0
	github.com/spf13/viper v1.12.0
	github.com/wonderivan/logger v1.0.0
	github.com/xxtea/xxtea-go v1.0.0
	golang.org/x/net v0.14.0
	xorm.io/xorm v1.3.2
)

require (
	github.com/bytedance/sonic v1.9.1 // indirect
	github.com/chenzhuoyu/base64x v0.0.0-20221115062448-fe3a3abad311 // indirect
	github.com/fsnotify/fsnotify v1.6.0 // indirect
	github.com/gabriel-vasile/mimetype v1.4.2 // indirect
	github.com/gin-contrib/sse v0.1.0 // indirect
	github.com/go-playground/locales v0.14.1 // indirect
	github.com/go-playground/universal-translator v0.18.1 // indirect
	github.com/go-playground/validator/v10 v10.14.0 // indirect
	github.com/goccy/go-json v0.10.2 // indirect
	github.com/golang/snappy v0.0.4 // indirect
	github.com/hashicorp/hcl v1.0.0 // indirect
	github.com/jmespath/go-jmespath v0.0.0-20180206201540-c2b33e8439af // indirect
	github.com/klauspost/cpuid/v2 v2.2.4 // indirect
	github.com/leodido/go-urn v1.2.4 // indirect
	github.com/magiconair/properties v1.8.7 // indirect
	github.com/mattn/go-isatty v0.0.19 // indirect
	github.com/mitchellh/mapstructure v1.5.0 // indirect
	github.com/modern-go/concurrent v0.0.0-20180306012644-bacd9c7ef1dd // indirect
	github.com/modern-go/reflect2 v1.0.2 // indirect
	github.com/opentracing/opentracing-go v1.2.1-0.20220228012449-10b1cf09e00b // indirect
	github.com/pelletier/go-toml v1.9.5 // indirect
	github.com/pelletier/go-toml/v2 v2.0.8 // indirect
	github.com/spf13/afero v1.9.5 // indirect
	github.com/spf13/cast v1.5.1 // indirect
	github.com/spf13/jwalterweatherman v1.1.0 // indirect
	github.com/spf13/pflag v1.0.5 // indirect
	github.com/subosito/gotenv v1.4.2 // indirect
	github.com/syndtr/goleveldb v1.0.0 // indirect
	github.com/twitchyliquid64/golang-asm v0.15.1 // indirect
	github.com/ugorji/go/codec v1.2.11 // indirect
	golang.org/x/arch v0.3.0 // indirect
	golang.org/x/crypto v0.12.0 // indirect
	golang.org/x/sys v0.11.0 // indirect
	golang.org/x/text v0.12.0 // indirect
	google.golang.org/protobuf v1.30.0 // indirect
	gopkg.in/ini.v1 v1.67.0 // indirect
	gopkg.in/yaml.v2 v2.4.0 // indirect
	gopkg.in/yaml.v3 v3.0.1 // indirect
	xorm.io/builder v0.3.11-0.20220531020008-1bd24a7dc978 // indirect
)
