bank,39572081593
bank,42108731357
bank,40513917970
phone,9916982142
phone,9257401029
phone,6367993316
email,manjunatha99169@gmail.com
ip,152.58.70.178
ip,152.58.101.8
ip,152.58.100.113
ip,117.239.0.157